…
The residuals plot appears similar to the plot generated from model 2.

Compare the three models using cross validation and RMSE. The plot of
rmse distributions shows that the model we created using Boruta (model
3) has the lowest RMSE on average.

``` r
cv_df = 
  crossv_mc(baby_df, 100) 

cv_df %>% pull(train) %>% .[[1]] %>% as_tibble
```

    ## # A tibble: 3,473 x 20
    ##    babysex bhead blength   bwt delwt fincome frace gaweeks malform menarche
    ##    <fct>   <dbl>   <dbl> <dbl> <dbl>   <dbl> <fct>   <dbl> <fct>      <dbl>
    ##  1 2          34      51  3629   177      35 1        39.9 0             13
    ##  2 1          34      48  3062   156      65 2        25.9 0             14
    ##  3 2          36      50  3345   148      85 1        39.9 0             12
    ##  4 1          34      52  3062   157      55 1        40   0             14
    ##  5 2          34      52  3374   156       5 1        41.6 0             13
    ##  6 2          33      46  2523   126      96 2        40.3 0             14
    ##  7 1          36      52  3515   146      85 1        40.3 0             11
    ##  8 1          33      50  3459   169      75 2        40.7 0             12
    ##  9 2          35      51  3317   130      55 1        43.4 0             13
    ## 10 1          35      51  3459   146      55 1        39.4 0             12
    ## # … with 3,463 more rows, and 10 more variables: mheight <dbl>, momage <dbl>,
    ## #   mrace <fct>, parity <dbl>, pnumlbw <dbl>, pnumsga <dbl>, ppbmi <dbl>,
    ## #   ppwt <dbl>, smoken <dbl>, wtgain <dbl>

``` r
cv_df %>% pull(test) %>% .[[1]] %>% as_tibble
```

    ## # A tibble: 869 x 20
    ##    babysex bhead blength   bwt delwt fincome frace gaweeks malform menarche
    ##    <fct>   <dbl>   <dbl> <dbl> <dbl>   <dbl> <fct>   <dbl> <fct>      <dbl>
    ##  1 1          33      52  3374   129      55 1        40.7 0             12
    ##  2 2          33      49  2778   140       5 1        37.4 0             12
    ##  3 1          35      56  3232   147      55 1        42.1 0             13
    ##  4 2          35      53  3345   127      65 2        39.7 0             14
    ##  5 2          36      56  3685   170      95 1        40.3 0             12
    ##  6 1          38      53  3799   167      75 1        39.9 0             12
    ##  7 2          33      54  3062   134      65 1        40.4 0             12
    ##  8 2          35      53  3600   141      35 1        42.3 0             14
    ##  9 2          34      51  3232   155      55 1        41.6 0             15
    ## 10 2          34      51  3175   142      96 1        42.3 0             17
    ## # … with 859 more rows, and 10 more variables: mheight <dbl>, momage <dbl>,
    ## #   mrace <fct>, parity <dbl>, pnumlbw <dbl>, pnumsga <dbl>, ppbmi <dbl>,
    ## #   ppwt <dbl>, smoken <dbl>, wtgain <dbl>
…
